Midterm 2 W26
…
(3 points) As explained above, the ratio of
urea_nitrogen to creatinine is used as an
index of fasting. To calculate the ratio, we need to multiply
urea_nitrogen by 0.466, then divide by
creatinine. Create a new variable called
un_creat_ratio that contains this calculation.

polar_bears <- polar_bears %>% 
  mutate(un_creat_ratio=((urea_nitrogen * 0.466) / creatinine))
polar_bears

## # A tibble: 519 × 14
##    bear_id year  month day   popn  sex   age_class mating denning   lat  long
##      <dbl> <chr> <chr> <chr> <chr> <chr> <chr>     <chr>  <chr>   <dbl> <dbl>
##  1    6398 1985  04    28    SB    F     A         no     yes      70.4 -148.
##  2    6384 1991  04    13    SB    F     A         no     yes      70.0 -150.
##  3    6520 1992  04    18    SB    F     A         no     yes      70.9 -145.
##  4    6559 2000  04    12    SB    F     A         no     yes      70.0 -142.
##  5   20629 2003  04    16    SB    F     A         no     yes      70.5 -145.
##  6   20876 2007  04    01    SB    F     A         no     yes      71.1 -153.
##  7   20354 2009  04    16    SB    F     A         no     yes      70.7 -145.
##  8   21024 2009  04    25    SB    F     A         no     yes      70.5 -147.
##  9   20764 2009  05    01    SB    F     A         no     yes      70.8 -149.
## 10   21045 2009  05    19    SB    F     A         no     yes      70.7 -148.
## # ℹ 509 more rows
## # ℹ 3 more variables: urea_nitrogen <dbl>, creatinine <dbl>,
## #   un_creat_ratio <dbl>

(4 points) The authors of the study categorized bears as fasting if
their un_creat_ratio was less than or equal to 10. Use
case_when() to create a new variable called
fasting that categorizes bears as fasting or not.

polar_bears <- polar_bears %>% 
  mutate(fasting=case_when(un_creat_ratio <= 10 ~ "yes", .default="no"))
polar_bears

## # A tibble: 519 × 15
##    bear_id year  month day   popn  sex   age_class mating denning   lat  long
##      <dbl> <chr> <chr> <chr> <chr> <chr> <chr>     <chr>  <chr>   <dbl> <dbl>
##  1    6398 1985  04    28    SB    F     A         no     yes      70.4 -148.
##  2    6384 1991  04    13    SB    F     A         no     yes      70.0 -150.
##  3    6520 1992  04    18    SB    F     A         no     yes      70.9 -145.
##  4    6559 2000  04    12    SB    F     A         no     yes      70.0 -142.
##  5   20629 2003  04    16    SB    F     A         no     yes      70.5 -145.
##  6   20876 2007  04    01    SB    F     A         no     yes      71.1 -153.
##  7   20354 2009  04    16    SB    F     A         no     yes      70.7 -145.
##  8   21024 2009  04    25    SB    F     A         no     yes      70.5 -147.
##  9   20764 2009  05    01    SB    F     A         no     yes      70.8 -149.
## 10   21045 2009  05    19    SB    F     A         no     yes      70.7 -148.
## # ℹ 509 more rows
## # ℹ 4 more variables: urea_nitrogen <dbl>, creatinine <dbl>,
## #   un_creat_ratio <dbl>, fasting <chr>
…
