…
I want to explore what the most fished for fish (based on common name, not including NEI) is for each of the geographical regions in the data.


``` r
fisheries_clean %>% 
  filter(!grepl("NEI", common_name)) %>% 
  group_by(geo_region, common_name) %>% 
  summarize(n_caught=sum(catch), .groups='drop') %>% 
  group_by(geo_region) %>% 
  slice_max(n_caught, n=1)
```

```
## # A tibble: 23 × 3
## # Groups:   geo_region [23]
##    geo_region                common_name                     n_caught
##    <fct>                     <fct>                              <dbl>
##  1 Australia and New Zealand Blue grenadier                  5319289.
##  2 Caribbean                 Caribbean spiny lobster         1016762.
##  3 Central America           Pacific sardine                17807309.
##  4 Central Asia              Freshwater bream                 563576.
##  5 Eastern Africa            Nile perch                     12116907.
##  6 Eastern Asia              Pacific sardine                73381069.
##  7 Eastern Europe            Alaska pollock(=Walleye poll.) 54555273 
##  8 Melanesia                 Skipjack tuna                   5829729.
##  9 Micronesia                Skipjack tuna                   4621823.
## 10 Middle Africa             Cunene horse mackerel           5145556.
## # ℹ 13 more rows
```
…
